[gd_resource type="Resource" load_steps=4 format=3 uid="uid://c87hwbb2kj4h6"]

[ext_resource type="Script" path="res://src/recipes/ProductionRecipe.cs" id="1"]
[ext_resource type="Resource" uid="uid://dtl5trjtqau2a" path="res://Resources/RawResourceIron.tres" id="2"]
[ext_resource type="Resource" path="res://Resources/ProducedResourceSteel.tres" id="2_riuq1"]

[resource]
resource_name = "RecipeSteel"
script = ExtResource("1")
InputResources = [ExtResource("2")]
OutputResources = Array[Resource]([ExtResource("2_riuq1")])
