; Engine configuration file.
; It's best edited using the editor UI and not directly,
; since the parameters that go here are not all obvious.
;
; Format:
;   [section] ; section goes between []
;   param=value ; assign values to parameters

config_version=5

[application]

config/name="Dvoid Awakening"
run/main_scene="res://Scenes/root.tscn"
config/features=PackedStringArray("4.2", "C#")
config/icon="res://icon.png"

[display]

window/size/viewport_width=1920
window/size/viewport_height=1080

[dotnet]

project/assembly_name="Dvoid Awakening"

[editor_plugins]

enabled=PackedStringArray("res://addons/godot-polyliner/plugin.cfg")

[input]

cancel={
"deadzone": 0.5,
"events": []
}

[layer_names]

3d_physics/layer_2="Input"

[rendering]

anti_aliasing/quality/msaa_3d=3
environment/defaults/default_environment="res://default_env.tres"
