[gd_resource type="Resource" load_steps=2 format=2]

[ext_resource path="res://src/resources/StrategicResource.cs" type="Script" id=1]

[resource]
script = ExtResource( 1 )
Amount = 0
HumanReadableName = ""
